<?xml version="1.0" encoding="UTF-8" standalone="no"?>
<svg
   xmlns:dc="http://purl.org/dc/elements/1.1/"
   xmlns:cc="http://creativecommons.org/ns#"
   xmlns:rdf="http://www.w3.org/1999/02/22-rdf-syntax-ns#"
   xmlns:svg="http://www.w3.org/2000/svg"
   xmlns="http://www.w3.org/2000/svg"
   xmlns:sodipodi="http://sodipodi.sourceforge.net/DTD/sodipodi-0.dtd"
   xmlns:inkscape="http://www.inkscape.org/namespaces/inkscape"
   inkscape:version="1.0 (4035a4fb49, 2020-05-01)"
   sodipodi:docname="logo.svg"
   id="svg8"
   version="1.1"
   viewBox="0 0 600 600"
   height="600"
   width="600">
  <defs
     id="defs2" />
  <sodipodi:namedview
     inkscape:snap-page="true"
     units="px"
     showgrid="false"
     inkscape:document-rotation="0"
     inkscape:current-layer="layer1"
     inkscape:document-units="px"
     inkscape:cy="204.42274"
     inkscape:cx="500.63565"
     inkscape:zoom="0.7"
     inkscape:pageshadow="2"
     inkscape:pageopacity="0.0"
     borderopacity="1.0"
     bordercolor="#666666"
     pagecolor="#ffffff"
     id="base" />
  <metadata
     id="metadata5">
    <rdf:RDF>
      <cc:Work
         rdf:about="">
        <dc:format>image/svg+xml</dc:format>
        <dc:type
           rdf:resource="http://purl.org/dc/dcmitype/StillImage" />
        <dc:title></dc:title>
      </cc:Work>
    </rdf:RDF>
  </metadata>
  <g
     id="layer1"
     inkscape:groupmode="layer"
     inkscape:label="logo">
    <rect
       inkscape:label="fond"
       y="0"
       x="0"
       height="600"
       width="600"
       id="rect833"
       style="fill:#000000;stroke-width:18.8976;stop-color:#000000" />
    <path
       sodipodi:nodetypes="ccccccccccccccccccccccccccccc"
       inkscape:label="engrenage"
       id="path837"
       d="m 63.938682,228.30202 25.624637,-64.7946 61.103921,3.78498 57.28466,-31.99008 0.13288,-64.687431 67.35362,-22.761265 28.23084,58.399156 50.39626,16.61871 63.39291,-38.029742 51.47646,34.201912 -23.51997,61.89264 32.68878,66.17484 67.67511,12.09648 -3.34346,77.09253 -73.62904,15.78285 -19.55926,61.19396 29.26386,55.33858 -63.22573,47.52861 -47.91868,-39.67147 -62.31699,9.78177 -29.02812,65.89193 -77.24685,-25.78753 16.55443,-59.84797 -51.54076,-51.68222 -59.09785,29.96685 -50.469134,-58.64776 49.706144,-40.47734 8.36294,-82.88786 z"
       style="fill:#ffffff;fill-opacity:1;stroke:none;stroke-width:1.08631px;stroke-linecap:butt;stroke-linejoin:miter;stroke-opacity:1" />
    <text
       id="text841"
       y="398.00012"
       x="299.99991"
       style="font-style:normal;font-variant:normal;font-weight:normal;font-stretch:normal;font-size:266.667px;line-height:1.25;font-family:Anarchie;-inkscape-font-specification:Anarchie;text-align:center;text-anchor:middle"
       xml:space="preserve"><tspan
         y="398.00012"
         x="299.99991"
         id="tspan839"
         sodipodi:role="line">M</tspan></text>
  </g>
</svg>
